[
  {
    "id": 1,
    "vendorCode": 235712821,
    "name": "Мед натуральный Справжній мед Разнотравье 1.4 кг",
    "price": 233,
    "imgURL": "./img/honey_235712821.jpg",
    "color": "Оранжевый"
  },
  {
    "id": 2,
    "vendorCode": 235701205,
    "name": "Мед натуральный Справжній мед Липовый 1.4 кг",
    "price": 252,
    "imgURL": "./img/honey_235701205.jpg",
    "color": "Красный"
  },
  {
    "id": 3,
    "vendorCode": 72480555,
    "name": "Мед луговой Аскания с миндалем 250 г",
    "price": 106,
    "imgURL": "./img/honey_72480555.jpg",
    "color": "Миндальный"
  },
  {
    "id": 4,
    "vendorCode": 39466440,
    "name": "Мед-крем Аскания Лимон и Мята 250 г",
    "price": 62,
    "imgURL": "./img/honey_39466440.jpg",
    "color": "Лимонный"
  },
  {
    "id": 5,
    "vendorCode": 39463536,
    "name": "Мед-крем Аскания Классический 400 г",
    "price": 66,
    "imgURL": "./img/honey_39463536.jpg",
    "color": "Кремовый"
  },
  {
    "id": 6,
    "vendorCode": 258537841,
    "name": "Подарочный медовый набор №7 \"Anvi-honey\"",
    "price": 198,
    "imgURL": "./img/honey_258537841.jpg",
    "color": "Подарочный"
  },
  {
    "id": 7,
    "vendorCode": 205643953,
    "name": "Подарунковий набір HONIGMA 1750 г",
    "price": 400,
    "imgURL": "./img/honey_205643953.jpg",
    "color": "Черный"
  },
  {
    "id": 8,
    "vendorCode": 260741466,
    "name": "Натуральний мед з асорті із асканійських ланів 470г",
    "price": 162,
    "imgURL": "./img/honey_260741466.jpg",
    "color": "Ореховый"
  },
  {
    "id": 9,
    "vendorCode": 39469896,
    "name": "Мед-крем Аскания Клюква 250 г",
    "price": 62,
    "imgURL": "./img/honey_39469896.jpg",
    "color": "Клюквенный"
  },
  {
    "id": 10,
    "vendorCode": 36702936,
    "name": "Мед липовый Медовий Шлях 700 г",
    "price": 130,
    "imgURL": "./img/honey_36702936.png",
    "color": "Липовый"
  }
]